<?xml version="1.0" encoding="utf-8"?>
<!-- Generator: Adobe Illustrator 22.0.0, SVG Export Plug-In . SVG Version: 6.00 Build 0)  -->
<svg version="1.1" id="图层_1" xmlns="http://www.w3.org/2000/svg" xmlns:xlink="http://www.w3.org/1999/xlink" x="0px" y="0px"
	 viewBox="0 0 32 32" style="enable-background:new 0 0 32 32;" xml:space="preserve">
<style type="text/css">
</style>
<title>短信 copy</title>
<desc>Created with Sketch.</desc>
<g id="行情">
	<path id="短信-copy" class="st0" d="M16.7,11.1c-0.7,0-1.6,0.4-1.8,1c-0.4,0.7-0.4,1.6,0,2.1c0.3,0.8,1.1,1.1,1.8,1.1
		c1.1,0,2-1,2-2.1S17.8,11.1,16.7,11.1z M28.7,1.2c0.7,0,1.4,0.3,2,0.8c0.6,0.6,0.8,1.3,0.8,2v16.9c0,1.6-1.3,2.8-2.8,2.8h-8.9
		l-9.4,7v-7h-7c-1.5,0-2.8-1.3-2.8-2.8V4c0-0.7,0.3-1.4,0.8-2s1.3-0.8,2-0.8H28.7z M23.8,11.1c-0.7,0-1.4,0.4-1.8,1
		c-0.4,0.7-0.4,1.4,0,2.1c0.4,0.7,1.1,1.1,1.8,1.1c1.1,0,2.1-1,2.1-2.1S24.9,11.1,23.8,11.1z M9.7,11.1c-0.7,0-1.4,0.4-1.8,1.1
		c-0.4,0.7-0.4,1.4,0,2.1c0.4,0.6,1.1,1,1.8,1c1.1,0,2.1-1,2.1-2.1S10.8,11.1,9.7,11.1z"/>
</g>
</svg>
